{
    "users": [
      {
        "id": 1,
        "name": "Spanner",
        "category": "tools"
      },
      {
        "id": 2,
        "name": "Hammer",
        "category": "tools"
      },
      {
        "id": 3,
        "name": "Screw driver",
        "category": "tools"
      },
      {
        "id": 4,
        "name": "Paint brush",
        "category": "paint"
      },
      {
        "id": 5,
        "name": "Paint roller",
        "category": "paint"
      },
      {
        "id": 6,
        "name": "Paint",
        "category": "paint"
      }
    ]
  }